…
## Number of visits per zip code

``` r
last300 %>% 
  group_by(ZIPCODE) %>% 
  summarize(total = sum(total_ed_visits)) %>% 
  arrange(-total)
```

    ## # A tibble: 146 x 2
    ##    ZIPCODE total
    ##    <chr>   <dbl>
    ##  1 10457     595
    ##  2 11207     564
    ##  3 11368     558
    ##  4 10029     541
    ##  5 10461     500
    ##  6 11432     440
    ##  7 10456     419
    ##  8 10304     415
    ##  9 11235     399
    ## 10 10002     393
    ## # ... with 136 more rows
…
