…
nested_data %>% 
  mutate(model = map(data, ~lm(quantity ~ region:`sub-category`, .x)),
         tidy = map(model, broom::tidy)) %>% 
  unnest(tidy) %>% 
  filter(term != "(Intercept)", p.value < 0.05) %>% 
  mutate(term = gsub('region|`sub-category`', '', term)) %>% 
  arrange(-abs(estimate))
```

    ## # A tibble: 59 x 8
    ##    month data                 model  term   estimate std.error statistic p.value
    ##    <ord> <list>               <list> <chr>     <dbl>     <dbl>     <dbl>   <dbl>
    ##  1 Jan   <tibble [381 x 4]>   <lm>   South~     9.00     2.74       3.29 1.12e-3
    ##  2 Jul   <tibble [710 x 4]>   <lm>   East:~     5.50     2.36       2.33 1.99e-2
    ##  3 Sep   <tibble [1,383 x 4]> <lm>   South~     4.50     2.20       2.04 4.13e-2
    ##  4 Apr   <tibble [668 x 4]>   <lm>   East:~     4.50     1.71       2.63 8.85e-3
    ##  5 Jun   <tibble [717 x 4]>   <lm>   South~    -3.72     1.69      -2.20 2.83e-2
    ##  6 Jul   <tibble [710 x 4]>   <lm>   South~     3.50     1.50       2.33 2.03e-2
    ##  7 Apr   <tibble [668 x 4]>   <lm>   South~     3.50     1.35       2.58 1.00e-2
    ##  8 Nov   <tibble [1,470 x 4]> <lm>   Centr~    -3.29     1.43      -2.31 2.13e-2
    ##  9 Mar   <tibble [696 x 4]>   <lm>   Centr~    -3.00     1.53      -1.97 4.98e-2
    ## 10 Dec   <tibble [1,408 x 4]> <lm>   Centr~    -2.94     0.652     -4.51 7.11e-6
    ## # ... with 49 more rows
