…
    ## # A tibble: 1 x 1
    ##   neg_time
    ##      <dbl>
    ## 1  0.00175

``` r
bikes %>% 
  filter(length < 0) %>% 
  select(started_at, ended_at)
```

    ## # A tibble: 112 x 2
    ##    started_at          ended_at           
    ##    <dttm>              <dttm>             
    ##  1 2021-11-07 01:40:02 2021-11-07 01:05:46
    ##  2 2021-11-07 01:52:53 2021-11-07 01:05:22
    ##  3 2021-11-07 01:40:13 2021-11-07 01:00:29
    ##  4 2021-11-07 01:34:03 2021-11-07 01:17:13
    ##  5 2021-11-07 01:54:25 2021-11-07 01:03:44
    ##  6 2021-11-07 01:54:04 2021-11-07 01:25:57
    ##  7 2021-11-07 01:51:52 2021-11-07 01:22:53
    ##  8 2021-11-07 01:54:12 2021-11-07 01:05:09
    ##  9 2021-11-07 01:54:36 2021-11-07 01:03:11
    ## 10 2021-11-07 01:51:21 2021-11-07 01:07:59
    ## # ... with 102 more rows
…
