…
    ## # A tibble: 1 x 2
    ##   `min(score)` `max(score)`
    ##          <dbl>        <dbl>
    ## 1            0          116

``` r
inspections %>%
  count(score, sort = TRUE)
```

    ## # A tibble: 78 x 2
    ##    score     n
    ##    <dbl> <int>
    ##  1    12    85
    ##  2    13    82
    ##  3    10    74
    ##  4     9    54
    ##  5    NA    40
    ##  6    11    38
    ##  7     7    36
    ##  8    23    30
    ##  9    19    26
    ## 10    20    23
    ## # ... with 68 more rows
…
