…
    ## # A tibble: 1 x 2
    ##   `min(score)` `max(score)`
    ##          <dbl>        <dbl>
    ## 1            0          141

``` r
inspections %>%
  count(score, sort = TRUE)
```

    ## # A tibble: 80 x 2
    ##    score     n
    ##    <dbl> <int>
    ##  1    12   102
    ##  2    13    65
    ##  3    10    51
    ##  4     7    48
    ##  5    11    43
    ##  6     9    40
    ##  7    NA    39
    ##  8    18    32
    ##  9    21    32
    ## 10    20    31
    ## # ... with 70 more rows
…
