…
# Correlated Stocks

``` r
(stock_corr <- stocks %>% 
  widyr::pairwise_cor(company, date, open) %>% 
  filter(item1 > item2) %>% 
  mutate(corrstr = ifelse(abs(correlation > 0.5), "Strong", "Weak"),
         type = ifelse(correlation > 0, "Positive", "Negative")) %>% 
  arrange(-abs(correlation)))
```

    ## # A tibble: 91 x 5
    ##    item1                 item2                 correlation corrstr type    
    ##    <chr>                 <chr>                       <dbl> <chr>   <chr>   
    ##  1 Amazon.com, Inc.      Adobe Inc.                  0.988 Strong  Positive
    ##  2 Salesforce, Inc.      Adobe Inc.                  0.985 Strong  Positive
    ##  3 Microsoft Corporation Apple Inc.                  0.984 Strong  Positive
    ##  4 Salesforce, Inc.      Amazon.com, Inc.            0.983 Strong  Positive
    ##  5 Microsoft Corporation Alphabet Inc.               0.981 Strong  Positive
    ##  6 Oracle Corporation    Alphabet Inc.               0.969 Strong  Positive
    ##  7 Microsoft Corporation Adobe Inc.                  0.968 Strong  Positive
    ##  8 Salesforce, Inc.      Netflix, Inc.               0.968 Strong  Positive
    ##  9 NVIDIA Corporation    Microsoft Corporation       0.965 Strong  Positive
    ## 10 Apple Inc.            Alphabet Inc.               0.965 Strong  Positive
    ## # ... with 81 more rows
…
